{
    "version": 2,
    "builds": [
      { "src": "wp-config.php", "use": "@now/php" }
    ],
    "routes": [
      { "src": "/wp-admin/?", "dest": "index.php" },
      { "src": ".*\\.php$", "dest": "index.php" }
    ],
    "env": {
      "DB_NAME": "YzP3mTokJW",
      "DB_USER": "YzP3mTokJW",
      "DB_PASSWORD": "kmfJslyo4f",
      "DB_HOST": "remotemysql.com"
    }
}